<?xml version="1.0" encoding="utf-8"?>
<!-- Generator: Adobe Illustrator 19.0.1, SVG Export Plug-In . SVG Version: 6.00 Build 0)  -->
<svg version="1.1" id="Слой_1" xmlns="http://www.w3.org/2000/svg" xmlns:xlink="http://www.w3.org/1999/xlink" x="0px" y="0px"
	 viewBox="0 0 40 28" style="enable-background:new 0 0 40 28;" xml:space="preserve">
<style type="text/css">
	.st0{fill:#00B300;}
</style>
<g>
	<path class="st0" d="M17.2,18.8c0-0.5-0.1-0.9-0.2-1.3c-0.3-1.6-1.1-3.1-2.3-4.4c-0.7-0.7-1.4-1.2-2.2-1.6c0,0,0,0,0,0
		c-0.3-0.2-0.7-0.3-1-0.4c-0.1,0-0.2-0.1-0.3-0.1c-2.9-0.9-6.3-0.2-8.6,2.2c-3.3,3.4-3.3,9,0,12.4c2.9,3,7.4,3.3,10.7,1.2
		c0.1,0,0.1-0.1,0.2-0.1c0.4-0.3,0.7-0.6,1.1-0.9c0.1-0.1,0.1-0.1,0.2-0.2c0.2-0.2,0.4-0.4,0.5-0.6C16.6,23.1,17.3,20.9,17.2,18.8z
		 M14.3,24.5c-0.1,0.1-0.2,0.2-0.3,0.3c-0.2,0.2-0.5,0.4-0.7,0.6c0,0-0.1,0-0.1,0.1c-0.6,0.4-1.2,0.8-1.9,1.1
		c-2.8,1.1-6,0.5-8.3-1.8c-3-3.1-3-8.1,0-11.1c2.2-2.2,5.4-2.8,8.1-1.8c0.1,0,0.1,0,0.2,0.1c0.4,0.1,0.7,0.3,1,0.5
		c0,0,0.1,0,0.1,0.1c0.5,0.3,1.1,0.7,1.5,1.2c1.3,1.3,2,2.9,2.2,4.6c0,0.1,0,0.3,0,0.4C16.4,20.8,15.8,22.9,14.3,24.5z"/>
</g>
<path class="st0" d="M12.2,16.5c-0.1-0.1-0.2-0.2-0.3-0.2c-0.2,0-0.4,0-0.5,0.2l-4.1,4.2l-1.4-1.5c-0.2-0.2-0.6-0.2-0.9,0
	c-0.2,0.2-0.2,0.6,0,0.9L6.8,22c0.1,0.1,0.3,0.2,0.4,0.2s0.3-0.1,0.4-0.2l4.4-4.5l0.2-0.2C12.5,17.1,12.5,16.7,12.2,16.5z"/>
<g>
	<path class="st0" d="M37.2,2.4H22.6l-1.2-2C21.2,0.2,20.9,0,20.6,0H14c-0.5,0-1,0.4-1,1v9.9c0,0.3,0.3,0.6,0.6,0.6h23.9
		c0.3,0,0.6-0.3,0.6-0.6V3.4C38.1,2.9,37.7,2.4,37.2,2.4z M14.2,10.2v-9h6.2l1.2,2c0.2,0.3,0.5,0.5,0.8,0.5h14.5v6.6H14.2z"/>
	<rect x="15" y="8.9" class="st0" width="21.1" height="0.7"/>
	<rect x="15.5" y="7.4" class="st0" width="20.1" height="0.7"/>
	<rect x="16" y="6" class="st0" width="19.1" height="0.7"/>
	<path class="st0" d="M39.8,10.5c-0.1-0.2-0.3-0.3-0.6-0.3H11.8c-0.2,0-0.4,0.1-0.6,0.3c-0.1,0.1-0.2,0.3-0.2,0.4c0,0.1,0,0.1,0,0.2
		l0.1,0.8c0.1,0,0.1,0,0.2,0.1c0.4,0.1,0.7,0.3,1,0.5c0,0,0.1,0,0.1,0.1l-0.2-1h26.4l-2.2,14.9H14.6l-0.1-0.7l-0.2-1.1
		c-0.1,0.1-0.2,0.2-0.3,0.3c-0.2,0.2-0.5,0.4-0.7,0.6c0,0-0.1,0-0.1,0.1l0.1,1l0.1,0.4c0.1,0.4,0.4,0.6,0.7,0.6h22.7
		c0.3,0,0.6-0.3,0.7-0.6L40,11.1C40,10.9,40,10.7,39.8,10.5z M11.9,16.3l0.2,1.2l0.2-0.2c0.2-0.2,0.2-0.6,0-0.9
		C12.1,16.4,12,16.3,11.9,16.3z"/>
	<path class="st0" d="M33.7,17.4h-9.1c-0.2,0-0.3,0.1-0.3,0.3v5.8c0,0.2,0.1,0.3,0.3,0.3h9.1c0.2,0,0.3-0.1,0.3-0.3v-5.8
		C34,17.5,33.8,17.4,33.7,17.4z M33.4,23.2h-8.5V18h8.5V23.2z"/>
	<path class="st0" d="M28.4,19.1h-1.9c-0.3,0-0.5,0.2-0.5,0.5c0,0.3,0.2,0.5,0.5,0.5h1.9c0.3,0,0.5-0.2,0.5-0.5
		C28.9,19.3,28.7,19.1,28.4,19.1z"/>
	<path class="st0" d="M30.8,19.1h-0.5c-0.3,0-0.5,0.2-0.5,0.5c0,0.3,0.2,0.5,0.5,0.5h0.5c0.3,0,0.5-0.2,0.5-0.5
		C31.3,19.3,31.1,19.1,30.8,19.1z"/>
	<path class="st0" d="M31.8,21.1h-5.3c-0.3,0-0.5,0.2-0.5,0.5c0,0.3,0.2,0.5,0.5,0.5h5.3c0.3,0,0.5-0.2,0.5-0.5
		C32.2,21.3,32,21.1,31.8,21.1z"/>
</g>
</svg>
